GUIA_09/Guia_0904.vcd
$date
	Sun Apr 02 22:44:06 2023
$end
$version
	Icarus Verilog
$end
$timescale
	1s
$end
$scope module Guia_0904 $end
$var wire 1 ! clock $end
$upscope $end
$scope module Guia_0904 $end
$var wire 1 " pulseA $end
$upscope $end
$enddefinitions $end
$comment Show the parameter values. $end
$dumpall
$end
#0
$dumpvars
1"
0!
$end
#6
0"
#12
1"
1!
#18
0"
#24
1"
0!
#30
0"
#36
1"
1!
#42
0"
#48
1"
0!
#54
0"
#60
1"
1!
#66
0"
#72
1"
0!
#78
0"
#84
1"
1!
#90
0"
#96
1"
0!
#102
0"
#108
1"
1!
#114
0"
#120
1"
0!
#126
0"
#132
1"
1!
#138
0"
#144
1"
0!
#150
0"
#156
1"
1!
#162
0"
#168
1"
0!
#174
0"
#180
1"
1!
#186
0"
#192
1"
0!
#198
0"
#204
1"
1!
#210
0"
#216
1"
0!
#222
0"
#228
1"
1!
#234
0"
#240
1"
0!
#246
0"
#252
1"
1!
#258
0"
#264
1"
0!
#270
0"
#276
1"
1!
#282
0"
#288
1"
0!
#294
0"
#300
1"
1!
#306
0"
#312
1"
0!
#318
0"
#324
1"
1!
#330
0"
#336
1"
0!
#342
0"
#348
1"
1!
#354
0"
#360
1"
0!
#366
0"
#372
1"
1!
#378
0"
#384
1"
0!
#390
0"
#396
1"
1!
#402
0"
#408
1"
0!
#414
0"
#420
1"
1!
#426
0"
#432
1"
0!
#438
0"
#444
1"
1!
#450
0"
#456
1"
0!
#462
0"
#468
1"
1!
#474
0"
#480
1"
0!
#486
0"
#492
1"
1!
#498
0"
#504
1"
0!
#510
0"
#516
1"
1!
#522
0"
#528
1"
0!
#534
0"
#540
1"
1!
#546
0"
#552
1"
0!
#558
0"
#564
1"
1!
#570
0"
#576
1"
0!
#582
0"
#588
1"
1!
#594
0"
#600
1"
0!
#606
0"
#612
1"
1!
#618
0"
#624
1"
0!
#630
0"
#636
1"
1!
#642
0"
#648
1"
0!
#654
0"
#660
1"
1!
#666
0"
#672
1"
0!
#678
0"
#684
1"
1!
#690
0"
#696
1"
0!
#702
0"
#708
1"
1!
#714
0"
#720
1"
0!
#726
0"
#732
1"
1!
#738
0"
#744
1"
0!
#750
0"
#756
1"
1!
#762
0"
#768
1"
0!
#774
0"
#780
1"
1!
#786
0"
#792
1"
0!
#798
0"
#804
1"
1!
#810
0"
#816
1"
0!
#822
0"
#828
1"
1!
#834
0"
#840
1"
0!
#846
0"
#852
1"
1!
#858
0"
#864
1"
0!
#870
0"
#876
1"
1!
#882
0"
#888
1"
0!
#894
0"
#900
1"
1!
#906
0"
#912
1"
0!
#918
0"
#924
1"
1!
#930
0"
#936
1"
0!
#942
0"
#948
1"
1!
#954
0"
#960
1"
0!
#966
0"
#972
1"
1!
#978
0"
#984
1"
0!
#990
0"
#996
1"
1!
#1002
0"
#1008
1"
0!
#1014
0"
#1020
1"
1!
#1026
0"
#1032
1"
0!
#1038
0"
#1044
1"
1!
#1050
0"
#1056
1"
0!
#1062
0"
#1068
1"
1!
#1074
0"
#1080
1"
0!
#1086
0"
#1092
1"
1!
#1098
0"
#1104
1"
0!
#1110
0"
#1116
1"
1!
#1122
0"
#1128
1"
0!
#1134
0"
#1140
1"
1!
#1146
0"
#1152
1"
0!
#1158
0"
#1164
1"
1!
#1170
0"
#1176
1"
0!
#1182
0"
#1188
1"
1!
#1194
0"
#1200
1"
0!
#1206
0"
#1212
1"
1!
#1218
0"
#1224
1"
0!
#1230
0"
#1236
1"
1!
#1242
0"
#1248
1"
0!
#1254
0"
#1260
1"
1!
#1266
0"
#1272
1"
0!
#1278
0"
#1284
1"
1!
#1290
0"
#1296
1"
0!
#1302
0"
#1308
1"
1!
#1314
0"
#1320
1"
0!
#1326
0"
#1332
1"
1!
#1338
0"
#1344
1"
0!
#1350
0"
#1356
1"
1!
#1362
0"
#1368
1"
0!
#1374
0"
#1380
1"
1!
#1386
0"
#1392
1"
0!
#1398
0"
#1404
1"
1!
#1410
0"
#1416
1"
0!
#1422
0"
#1428
1"
1!
#1434
0"
#1440
1"
0!
#1446
0"
#1452
1"
1!
#1458
0"
#1464
1"
0!
#1470
0"
#1476
1"
1!
#1482
0"
#1488
1"
0!
#1494
0"
#1500
1"
1!
#1506
0"
#1512
1"
0!
#1518
0"
#1524
1"
1!
#1530
0"
#1536
1"
0!
#1542
0"
#1548
1"
1!
#1554
0"
#1560
1"
0!
#1566
0"
#1572
1"
1!
#1578
0"
#1584
1"
0!
#1590
0"
#1596
1"
1!
#1602
0"
#1608
1"
0!
#1614
0"
#1620
1"
1!
#1626
0"
#1632
1"
0!
