GUIA_09/Guia_0903.vcd
$date
	Sun Apr 02 22:21:44 2023
$end
$version
	Icarus Verilog
$end
$timescale
	1s
$end
$scope module Guia_0903 $end
$var wire 1 ! clock $end
$upscope $end
$scope module Guia_0903 $end
$var wire 1 " pulseA $end
$upscope $end
$enddefinitions $end
$comment Show the parameter values. $end
$dumpall
$end
#0
$dumpvars
1"
0!
$end
#8
0"
#12
1!
#16
1"
#24
0"
0!
#36
1"
1!
#44
0"
#48
0!
#52
1"
#60
0"
1!
#72
1"
0!
#80
0"
#84
1!
#88
1"
#96
0"
0!
#108
1"
1!
#116
0"
#120
0!
#124
1"
#132
0"
1!
#144
1"
0!
#152
0"
#156
1!
#160
1"
#168
0"
0!
#180
1"
1!
#188
0"
#192
0!
#196
1"
#204
0"
1!
#216
1"
0!
#224
0"
#228
1!
#232
1"
#240
0"
0!
#252
1"
1!
#260
0"
#264
0!
#268
1"
#276
0"
1!
#288
1"
0!
#296
0"
#300
1!
#304
1"
#312
0"
0!
#324
1"
1!
#332
0"
#336
0!
#340
1"
#348
0"
1!
#360
1"
0!
#368
0"
#372
1!
#376
1"
#384
0"
0!
#396
1"
1!
#404
0"
#408
0!
#412
1"
#420
0"
1!
#432
1"
0!
#440
0"
#444
1!
#448
1"
#456
0"
0!
#468
1"
1!
#476
0"
#480
0!
#484
1"
#492
0"
1!
#504
1"
0!
#512
0"
#516
1!
#520
1"
#528
0"
0!
#540
1"
1!
#548
0"
#552
0!
#556
1"
#564
0"
1!
#576
1"
0!
#584
0"
#588
1!
#592
1"
#600
0"
0!
#612
1"
1!
#620
0"
#624
0!
#628
1"
#636
0"
1!
#648
1"
0!
#656
0"
#660
1!
#664
1"
#672
0"
0!
#684
1"
1!
#692
0"
#696
0!
#700
1"
#708
0"
1!
#720
1"
0!
#728
0"
#732
1!
#736
1"
#744
0"
0!
#756
1"
1!
#764
0"
#768
0!
#772
1"
#780
0"
1!
#792
1"
0!
#800
0"
#804
1!
#808
1"
#816
0"
0!
#828
1"
1!
#836
0"
#840
0!
#844
1"
#852
0"
1!
#864
1"
0!
#872
0"
#876
1!
#880
1"
#888
0"
0!
#900
1"
1!
#908
0"
#912
0!
#916
1"
#924
0"
1!
#936
1"
0!
#944
0"
#948
1!
#952
1"
#960
0"
0!
#972
1"
1!
#980
0"
#984
0!
#988
1"
#996
0"
1!
#1008
1"
0!
#1016
0"
#1020
1!
#1024
1"
#1032
0"
0!
#1044
1"
1!
#1052
0"
#1056
0!
#1060
1"
#1068
0"
1!
#1080
1"
0!
#1088
0"
#1092
1!
#1096
1"
#1104
0"
0!
#1116
1"
1!
#1124
0"
#1128
0!
#1132
1"
#1140
0"
1!
#1152
1"
0!
#1160
0"
#1164
1!
#1168
1"
#1176
0"
0!
#1188
1"
1!
#1196
0"
#1200
0!
#1204
1"
#1212
0"
1!
#1224
1"
0!
#1232
0"
#1236
1!
#1240
1"
#1248
0"
0!
#1260
1"
1!
#1268
0"
#1272
0!
#1276
1"
#1284
0"
1!
#1296
1"
0!
#1304
0"
#1308
1!
#1312
1"
#1320
0"
0!
#1332
1"
1!
#1340
0"
#1344
0!
#1348
1"
#1356
0"
1!
#1368
1"
0!
#1376
0"
#1380
1!
#1384
1"
#1392
0"
0!
#1404
1"
1!
#1412
0"
#1416
0!
#1420
1"
#1428
0"
1!
#1440
1"
0!
#1448
0"
#1452
1!
#1456
1"
#1464
0"
0!
#1476
1"
1!
#1484
0"
#1488
0!
#1492
1"
#1500
0"
1!
#1512
1"
0!
#1520
0"
#1524
1!
#1528
1"
#1536
0"
0!
#1548
1"
1!
#1556
0"
#1560
0!
#1564
1"
#1572
0"
1!
#1584
1"
0!
#1592
0"
#1596
1!
#1600
1"
#1608
0"
0!
#1620
1"
1!
#1628
0"
#1632
0!
#1636
1"
